{
	"page": 1,
	"total": 35,
  "totalPage": 5,
  "localList": [{
    "shopId": "8958924050",
    "shopName": "生活街商店",
    "imageUrl": "https://upload-images.jianshu.io/upload_images/14511997-42cba11e95693e6a.jpg",
    "rate": 4.7,
    "category": "超市",
    "distance": "100m",
    "latitude": 28.681692,
    "longitude": 116.016953,
    "localAddr": "江西省南昌市南昌县昌东镇紫微路江西科技学院"
  }, {
    "shopId": "8958924051",
    "shopName": "生活街水果店",
    "imageUrl": "https://upload-images.jianshu.io/upload_images/14511997-a93407f6cf335716.jpg",
    "rate": 4.8,
    "category": "水果店",
    "distance": "200m",
    "latitude": 28.681692,
    "longitude": 116.016953,
    "localAddr": "江西省南昌市南昌县昌东镇紫微路江西科技学院"
  }, {
    "shopId": "8958924052",
    "shopName": "生活街小餐馆",
    "imageUrl": "https://upload-images.jianshu.io/upload_images/14511997-09df8f95fe47cf6b.jpg",
    "rate": 4.5,
    "category": "餐馆",
    "distance": "100m",
    "latitude": 28.681692,
    "longitude": 116.016953,
    "localAddr": "江西省南昌市南昌县昌东镇紫微路江西科技学院"
  }, {
    "shopId": "8958924053",
    "shopName": "生活街百货店",
    "imageUrl": "https://upload-images.jianshu.io/upload_images/14511997-ec037b183653ebf6.jpg",
    "rate": 4.8,
    "category": "超市",
    "distance": "300m",
    "latitude": 28.681692,
    "longitude": 116.016953,
    "localAddr": "江西省南昌市南昌县昌东镇紫微路江西科技学院"
  }, {
    "shopId": "8958924054",
    "shopName": "生活街诊所",
    "imageUrl": "https://upload-images.jianshu.io/upload_images/14511997-a6e4ad5d7768f290.jpg",
    "rate": 4.8,
    "category": "诊所",
    "distance": "100m",
    "latitude": 28.681692,
    "longitude": 116.016953,
    "localAddr": "江西省南昌市南昌县昌东镇紫微路江西科技学院"
  }, {
    "shopId": "8958924055",
    "shopName": "生活街美食",
    "imageUrl": "https://upload-images.jianshu.io/upload_images/14511997-c8fd9da0b90e8e63.jpg",
    "rate": 4.8,
    "category": "小吃餐馆",
    "distance": "110m",
    "latitude": 28.681692,
    "longitude": 116.016953,
    "localAddr": "江西省南昌市南昌县昌东镇紫微路江西科技学院"
  }, {
    "shopId": "8958924056",
    "shopName": "生活街购物",
    "imageUrl": "https://upload-images.jianshu.io/upload_images/14511997-161603db93a6d5c4.jpg",
    "rate": 4.5,
    "category": "超市",
    "distance": "90m",
    "latitude": 28.681692,
    "longitude": 116.016953,
    "localAddr": "江西省南昌市南昌县昌东镇紫微路江西科技学院"
  }]
}